…
*The data appears tidy, as each variable has its own column, each observation their own row, and each value has its own cell.*

```r
deserts
```

```
## # A tibble: 34,786 x 13
##    record_id month   day  year plot_id species_id sex   hindfoot_length weight
##        <dbl> <dbl> <dbl> <dbl>   <dbl> <chr>      <chr>           <dbl>  <dbl>
##  1         1     7    16  1977       2 NL         M                  32     NA
##  2         2     7    16  1977       3 NL         M                  33     NA
##  3         3     7    16  1977       2 DM         F                  37     NA
##  4         4     7    16  1977       7 DM         M                  36     NA
##  5         5     7    16  1977       3 DM         M                  35     NA
##  6         6     7    16  1977       1 PF         M                  14     NA
##  7         7     7    16  1977       2 PE         F                  NA     NA
##  8         8     7    16  1977       1 DM         M                  37     NA
##  9         9     7    16  1977       1 DM         F                  34     NA
## 10        10     7    16  1977       6 PF         F                  20     NA
## # ... with 34,776 more rows, and 4 more variables: genus <chr>, species <chr>,
## #   taxa <chr>, plot_type <chr>
```

2. How many genera and species are represented in the data? What are the total number of observations? Which species is most/ least frequently sampled in the study?

*Dipodomys was the most represented genus in the data.*

```r
deserts %>%
  count(genus) %>%
  arrange(desc(n))
```

```
## # A tibble: 26 x 2
##    genus                n
##    <chr>            <int>
##  1 Dipodomys        16167
##  2 Chaetodipus       6029
##  3 Onychomys         3267
##  4 Reithrodontomys   2694
##  5 Peromyscus        2234
##  6 Perognathus       1629
##  7 Neotoma           1252
##  8 Ammospermophilus   437
##  9 Amphispiza         303
## 10 Spermophilus       249
## # ... with 16 more rows
```

*Dipodomys merriami appears the most in this study, which is commonly known as Merriam's kangaroo rat.*

```r
deserts %>%
  count(genus,species) %>%
  arrange(desc(n))
```

```
## # A tibble: 48 x 3
##    genus           species          n
##    <chr>           <chr>        <int>
##  1 Dipodomys       merriami     10596
##  2 Chaetodipus     penicillatus  3123
##  3 Dipodomys       ordii         3027
##  4 Chaetodipus     baileyi       2891
##  5 Reithrodontomys megalotis     2609
##  6 Dipodomys       spectabilis   2504
##  7 Onychomys       torridus      2249
##  8 Perognathus     flavus        1597
##  9 Peromyscus      eremicus      1299
## 10 Neotoma         albigula      1252
## # ... with 38 more rows
```
…
*Rodent albigula has the highest average weight.*

```r
deserts %>%
  group_by(taxa,species) %>%
  summarize(avg_weight=mean(weight, na.rm=T)) %>%
  arrange(desc(avg_weight))
```

```
## `summarise()` has grouped output by 'taxa'. You can override using the `.groups` argument.
```

```
## # A tibble: 42 x 3
## # Groups:   taxa [4]
##    taxa   species      avg_weight
##    <chr>  <chr>             <dbl>
##  1 Rodent albigula          159. 
##  2 Rodent spectabilis       120. 
##  3 Rodent spilosoma          93.5
##  4 Rodent hispidus           65.6
##  5 Rodent fulviventer        58.9
##  6 Rodent ochrognathus       55.4
##  7 Rodent ordii              48.9
##  8 Rodent merriami           43.2
##  9 Rodent baileyi            31.7
## 10 Rodent leucogaster        31.6
## # ... with 32 more rows
```
…
