…
```r
colleges #Data is tidy, as each variable has its own column, each observation itsrow,and each value its own cell.
```

```
## # A tibble: 341 x 10
##    instnm     city   stabbr zip   adm_rate sat_avg pcip26 costt4_a c150_4_pooled
##    <chr>      <chr>  <chr>  <chr>    <dbl>   <dbl>  <dbl>    <dbl>         <dbl>
##  1 Grossmont~ El Ca~ CA     9202~       NA      NA 0.0016     7956        NA    
##  2 College o~ Visal~ CA     9327~       NA      NA 0.0066     8109        NA    
##  3 College o~ San M~ CA     9440~       NA      NA 0.0038     8278        NA    
##  4 Ventura C~ Ventu~ CA     9300~       NA      NA 0.0035     8407        NA    
##  5 Oxnard Co~ Oxnard CA     9303~       NA      NA 0.0085     8516        NA    
##  6 Moorpark ~ Moorp~ CA     9302~       NA      NA 0.0151     8577        NA    
##  7 Skyline C~ San B~ CA     9406~       NA      NA 0          8580         0.233
##  8 Glendale ~ Glend~ CA     9120~       NA      NA 0.002      9181        NA    
##  9 Citrus Co~ Glend~ CA     9174~       NA      NA 0.0021     9281        NA    
## 10 Fresno Ci~ Fresno CA     93741       NA      NA 0.0324     9370        NA    
## # ... with 331 more rows, and 1 more variable: pftftug1_ef <dbl>
```
…
4. The column `COSTT4_A` is the annual cost of each institution. Which city has the highest average cost? Where is it located?

**Claremont has the highest average cost in California.**

```r
colleges %>%
  group_by(city) %>%
  summarize(average_coa=mean(costt4_a, na.rm=T)) %>%
  arrange(desc(average_coa))
```

```
## # A tibble: 161 x 2
##    city                average_coa
##    <chr>                     <dbl>
##  1 Claremont                 66498
##  2 Malibu                    66152
##  3 Valencia                  64686
##  4 Orange                    64501
##  5 Redlands                  61542
##  6 Moraga                    61095
##  7 Atherton                  56035
##  8 Thousand Oaks             54373
##  9 Rancho Palos Verdes       50758
## 10 La Verne                  50603
## # ... with 151 more rows
```
…
