…
```r
wolves %>%
  filter(pop=="BAN.JAS")
```

```
## # A tibble: 96 x 23
##    pop      year age_cat sex   color   lat  long habitat human pop_density
##    <chr>   <dbl> <chr>   <chr> <chr> <dbl> <dbl>   <dbl> <dbl>       <dbl>
##  1 BAN.JAS  2001 A       F     B      52.2 -117.  18553. 1145.        8.85
##  2 BAN.JAS  2003 A       F     B      52.2 -117.  18553. 1145.        8.85
##  3 BAN.JAS  2001 A       F     B      52.2 -117.  18553. 1145.        8.85
##  4 BAN.JAS  2003 A       F     B      52.2 -117.  18553. 1145.        8.85
##  5 BAN.JAS  2005 S       M     B      52.2 -117.  18553. 1145.        8.85
##  6 BAN.JAS  2001 A       F     G      52.2 -117.  18553. 1145.        8.85
##  7 BAN.JAS  2001 S       F     G      52.2 -117.  18553. 1145.        8.85
##  8 BAN.JAS  2006 A       F     <NA>   52.2 -117.  18553. 1145.        8.85
##  9 BAN.JAS  2001 A       M     G      52.2 -117.  18553. 1145.        8.85
## 10 BAN.JAS  2003 A       M     G      52.2 -117.  18553. 1145.        8.85
## # ... with 86 more rows, and 13 more variables: pack_size <dbl>,
## #   standard_habitat <dbl>, standard_human <dbl>, standard_pop <dbl>,
## #   standard_packsize <dbl>, standard_latitude <dbl>, standard_longitude <dbl>,
## #   cav_binary <dbl>, cdv_binary <dbl>, cpv_binary <dbl>, chv_binary <dbl>,
## #   neo_binary <dbl>, toxo_binary <dbl>
```


```r
wolves_48 <- wolves %>%
  filter(lat<=49.5 & !pop=="MEXICAN")
wolves_48
```

```
## # A tibble: 988 x 23
##    pop    year age_cat sex   color   lat  long habitat human pop_density
##    <chr> <dbl> <chr>   <chr> <chr> <dbl> <dbl>   <dbl> <dbl>       <dbl>
##  1 GTNP   2012 P       M     G      43.8 -111.  10375. 3924.        34.0
##  2 GTNP   2012 P       F     G      43.8 -111.  10375. 3924.        34.0
##  3 GTNP   2012 P       F     G      43.8 -111.  10375. 3924.        34.0
##  4 GTNP   2012 P       M     B      43.8 -111.  10375. 3924.        34.0
##  5 GTNP   2013 A       F     G      43.8 -111.  10375. 3924.        34.0
##  6 GTNP   2013 A       M     G      43.8 -111.  10375. 3924.        34.0
##  7 GTNP   2013 P       M     G      43.8 -111.  10375. 3924.        34.0
##  8 GTNP   2013 P       M     G      43.8 -111.  10375. 3924.        34.0
##  9 GTNP   2013 P       M     G      43.8 -111.  10375. 3924.        34.0
## 10 GTNP   2013 P       F     G      43.8 -111.  10375. 3924.        34.0
## # ... with 978 more rows, and 13 more variables: pack_size <dbl>,
## #   standard_habitat <dbl>, standard_human <dbl>, standard_pop <dbl>,
## #   standard_packsize <dbl>, standard_latitude <dbl>, standard_longitude <dbl>,
## #   cav_binary <dbl>, cdv_binary <dbl>, cpv_binary <dbl>, chv_binary <dbl>,
## #   neo_binary <dbl>, toxo_binary <dbl>
```
…
