…
```
## [1] "lakeid"          "fish_id"         "annnumber"       "length"         
## [5] "radii_length_mm" "scalelength"
```

We are only interested in lakeid and scalelength.

```r
select(fish, "lakeid", "scalelength")
```

```
## # A tibble: 4,033 × 2
##    lakeid scalelength
##    <chr>        <dbl>
##  1 AL            2.70
##  2 AL            2.70
##  3 AL            2.70
##  4 AL            3.02
##  5 AL            3.02
##  6 AL            3.02
##  7 AL            3.02
##  8 AL            3.34
##  9 AL            3.34
## 10 AL            3.34
## # … with 4,023 more rows
```

To add a range of columns use `start_col:end_col`.

```r
fish
```

```
## # A tibble: 4,033 × 6
##    lakeid fish_id annnumber length radii_length_mm scalelength
##    <chr>    <dbl> <chr>      <dbl>           <dbl>       <dbl>
##  1 AL         299 EDGE         167            2.70        2.70
##  2 AL         299 2            167            2.04        2.70
##  3 AL         299 1            167            1.31        2.70
##  4 AL         300 EDGE         175            3.02        3.02
##  5 AL         300 3            175            2.67        3.02
##  6 AL         300 2            175            2.14        3.02
##  7 AL         300 1            175            1.23        3.02
##  8 AL         301 EDGE         194            3.34        3.34
##  9 AL         301 3            194            2.97        3.34
## 10 AL         301 2            194            2.29        3.34
## # … with 4,023 more rows
```


```r
select(fish, fish_id:length)
```

```
## # A tibble: 4,033 × 3
##    fish_id annnumber length
##      <dbl> <chr>      <dbl>
##  1     299 EDGE         167
##  2     299 2            167
##  3     299 1            167
##  4     300 EDGE         175
##  5     300 3            175
##  6     300 2            175
##  7     300 1            175
##  8     301 EDGE         194
##  9     301 3            194
## 10     301 2            194
## # … with 4,023 more rows
```

The - operator is useful in select. It allows us to select everything except the specified variables.

```r
select(fish, -fish_id, -annnumber, -length, -radii_length_mm)
```

```
## # A tibble: 4,033 × 2
##    lakeid scalelength
##    <chr>        <dbl>
##  1 AL            2.70
##  2 AL            2.70
##  3 AL            2.70
##  4 AL            3.02
##  5 AL            3.02
##  6 AL            3.02
##  7 AL            3.02
##  8 AL            3.34
##  9 AL            3.34
## 10 AL            3.34
## # … with 4,023 more rows
```
…
```
## [1] "lakeid"          "fish_id"         "annnumber"       "length"         
## [5] "radii_length_mm" "scalelength"
```


```r
select(fish, contains("length"))
```

```
## # A tibble: 4,033 × 3
##    length radii_length_mm scalelength
##     <dbl>           <dbl>       <dbl>
##  1    167            2.70        2.70
##  2    167            2.04        2.70
##  3    167            1.31        2.70
##  4    175            3.02        3.02
##  5    175            2.67        3.02
##  6    175            2.14        3.02
##  7    175            1.23        3.02
##  8    194            3.34        3.34
##  9    194            2.97        3.34
## 10    194            2.29        3.34
## # … with 4,023 more rows
```

When columns are sequentially named, `starts_with()` makes selecting columns easier.

```r
select(fish, starts_with("radii"))
```

```
## # A tibble: 4,033 × 1
##    radii_length_mm
##              <dbl>
##  1            2.70
##  2            2.04
##  3            1.31
##  4            3.02
##  5            2.67
##  6            2.14
##  7            1.23
##  8            3.34
##  9            2.97
## 10            2.29
## # … with 4,023 more rows
```
…
```
## [1] "lakeid"          "fish_id"         "annnumber"       "length"         
## [5] "radii_length_mm" "scalelength"
```


```r
select(fish, ends_with("id"))
```

```
## # A tibble: 4,033 × 2
##    lakeid fish_id
##    <chr>    <dbl>
##  1 AL         299
##  2 AL         299
##  3 AL         299
##  4 AL         300
##  5 AL         300
##  6 AL         300
##  7 AL         300
##  8 AL         301
##  9 AL         301
## 10 AL         301
## # … with 4,023 more rows
```


```r
select(fish, contains("fish"))
```

```
## # A tibble: 4,033 × 1
##    fish_id
##      <dbl>
##  1     299
##  2     299
##  3     299
##  4     300
##  5     300
##  6     300
##  7     300
##  8     301
##  9     301
## 10     301
## # … with 4,023 more rows
```

We won't cover [regex](https://en.wikipedia.org/wiki/Regular_expression) in this class, but the following code is helpful when you know that a column contains a letter (in this case "a") followed by a subsequent string (in this case "er").  

```r
select(fish, matches("a.+er"))
```

```
## # A tibble: 4,033 × 1
##    annnumber
##    <chr>    
##  1 EDGE     
##  2 2        
##  3 1        
##  4 EDGE     
##  5 3        
##  6 2        
##  7 1        
##  8 EDGE     
##  9 3        
## 10 2        
## # … with 4,023 more rows
```
…
```r
select_if(fish, is.numeric)
```

```
## # A tibble: 4,033 × 4
##    fish_id length radii_length_mm scalelength
##      <dbl>  <dbl>           <dbl>       <dbl>
##  1     299    167            2.70        2.70
##  2     299    167            2.04        2.70
##  3     299    167            1.31        2.70
##  4     300    175            3.02        3.02
##  5     300    175            2.67        3.02
##  6     300    175            2.14        3.02
##  7     300    175            1.23        3.02
##  8     301    194            3.34        3.34
##  9     301    194            2.97        3.34
## 10     301    194            2.29        3.34
## # … with 4,023 more rows
```

To select all columns that are *not* a class of data, you need to add a `~`.

```r
select_if(fish, ~!is.numeric(.))
```

```
## # A tibble: 4,033 × 2
##    lakeid annnumber
##    <chr>  <chr>    
##  1 AL     EDGE     
##  2 AL     2        
##  3 AL     1        
##  4 AL     EDGE     
##  5 AL     3        
##  6 AL     2        
##  7 AL     1        
##  8 AL     EDGE     
##  9 AL     3        
## 10 AL     2        
## # … with 4,023 more rows
```
…
```r
mammals
```

```
## # A tibble: 1,440 × 13
##    order   family   Genus  species    mass gestation newborn weaning `wean mass`
##    <chr>   <chr>    <chr>  <chr>     <dbl>     <dbl>   <dbl>   <dbl>       <dbl>
##  1 Artiod… Antiloc… Antil… america… 4.54e4      8.13   3246.    3           8900
##  2 Artiod… Bovidae  Addax  nasomac… 1.82e5      9.39   5480     6.5         -999
##  3 Artiod… Bovidae  Aepyc… melampus 4.15e4      6.35   5093     5.63       15900
##  4 Artiod… Bovidae  Alcel… buselap… 1.5 e5      7.9   10167.    6.5         -999
##  5 Artiod… Bovidae  Ammod… clarkei  2.85e4      6.8    -999  -999           -999
##  6 Artiod… Bovidae  Ammot… lervia   5.55e4      5.08   3810     4           -999
##  7 Artiod… Bovidae  Antid… marsupi… 3   e4      5.72   3910     4.04        -999
##  8 Artiod… Bovidae  Antil… cervica… 3.75e4      5.5    3846     2.13        -999
##  9 Artiod… Bovidae  Bison  bison    4.98e5      8.93  20000    10.7       157500
## 10 Artiod… Bovidae  Bison  bonasus  5   e5      9.14  23000.    6.6         -999
## # … with 1,430 more rows, and 4 more variables: AFR <dbl>, max. life <dbl>,
## #   litter size <dbl>, litters/year <dbl>
```
…
```
##  [1] "order"        "family"       "Genus"        "species"      "mass"        
##  [6] "gestation"    "newborn"      "weaning"      "wean mass"    "AFR"         
## [11] "max. life"    "litter size"  "litters/year"
```

4. Rename any columns that have capitol letters or punctuation issues.  

```r
rename(mammals, "Order" = "order", "Family" = "family", "Species" = "species", "Mass" = "mass", "Gestation" = "gestation", "Newborn" = "newborn", "Weaning" = "weaning", "Wean Mass" = "wean mass", "Max Life" = "max. life", "Litter Size" = "litter size", "Litters/Year" = "litters/year")
```

```
## # A tibble: 1,440 × 13
##    Order   Family   Genus  Species    Mass Gestation Newborn Weaning `Wean Mass`
##    <chr>   <chr>    <chr>  <chr>     <dbl>     <dbl>   <dbl>   <dbl>       <dbl>
##  1 Artiod… Antiloc… Antil… america… 4.54e4      8.13   3246.    3           8900
##  2 Artiod… Bovidae  Addax  nasomac… 1.82e5      9.39   5480     6.5         -999
##  3 Artiod… Bovidae  Aepyc… melampus 4.15e4      6.35   5093     5.63       15900
##  4 Artiod… Bovidae  Alcel… buselap… 1.5 e5      7.9   10167.    6.5         -999
##  5 Artiod… Bovidae  Ammod… clarkei  2.85e4      6.8    -999  -999           -999
##  6 Artiod… Bovidae  Ammot… lervia   5.55e4      5.08   3810     4           -999
##  7 Artiod… Bovidae  Antid… marsupi… 3   e4      5.72   3910     4.04        -999
##  8 Artiod… Bovidae  Antil… cervica… 3.75e4      5.5    3846     2.13        -999
##  9 Artiod… Bovidae  Bison  bison    4.98e5      8.93  20000    10.7       157500
## 10 Artiod… Bovidae  Bison  bonasus  5   e5      9.14  23000.    6.6         -999
## # … with 1,430 more rows, and 4 more variables: AFR <dbl>, Max Life <dbl>,
## #   Litter Size <dbl>, Litters/Year <dbl>
```

5. We are only interested in the variables `genus`, `species`, and `mass`. Use `select()` to build a new dataframe `mass` focused on these variables.

```r
select(mammals, "mass", "Genus", "species")
```

```
## # A tibble: 1,440 × 3
##       mass Genus       species      
##      <dbl> <chr>       <chr>        
##  1  45375  Antilocapra americana    
##  2 182375  Addax       nasomaculatus
##  3  41480  Aepyceros   melampus     
##  4 150000  Alcelaphus  buselaphus   
##  5  28500  Ammodorcas  clarkei      
##  6  55500  Ammotragus  lervia       
##  7  30000  Antidorcas  marsupialis  
##  8  37500  Antilope    cervicapra   
##  9 497667. Bison       bison        
## 10 500000  Bison       bonasus      
## # … with 1,430 more rows
```
…
6. What if we only wanted to exclude `order` and `family`? Use the `-` operator to make the code efficient.

```r
select(mammals, -order, -family)
```

```
## # A tibble: 1,440 × 11
##    Genus species   mass gestation newborn weaning `wean mass`    AFR `max. life`
##    <chr> <chr>    <dbl>     <dbl>   <dbl>   <dbl>       <dbl>  <dbl>       <dbl>
##  1 Anti… americ… 4.54e4      8.13   3246.    3           8900   13.5         142
##  2 Addax nasoma… 1.82e5      9.39   5480     6.5         -999   27.3         308
##  3 Aepy… melamp… 4.15e4      6.35   5093     5.63       15900   16.7         213
##  4 Alce… busela… 1.5 e5      7.9   10167.    6.5         -999   23.0         240
##  5 Ammo… clarkei 2.85e4      6.8    -999  -999           -999 -999          -999
##  6 Ammo… lervia  5.55e4      5.08   3810     4           -999   14.9         251
##  7 Anti… marsup… 3   e4      5.72   3910     4.04        -999   10.2         228
##  8 Anti… cervic… 3.75e4      5.5    3846     2.13        -999   20.1         255
##  9 Bison bison   4.98e5      8.93  20000    10.7       157500   29.4         300
## 10 Bison bonasus 5   e5      9.14  23000.    6.6         -999   30.0         324
## # … with 1,430 more rows, and 2 more variables: litter size <dbl>,
## #   litters/year <dbl>
```

7. Select the columns that include "mass" as part of the name.  

```r
select(mammals, contains("mass"))
```

```
## # A tibble: 1,440 × 2
##       mass `wean mass`
##      <dbl>       <dbl>
##  1  45375         8900
##  2 182375         -999
##  3  41480        15900
##  4 150000         -999
##  5  28500         -999
##  6  55500         -999
##  7  30000         -999
##  8  37500         -999
##  9 497667.      157500
## 10 500000         -999
## # … with 1,430 more rows
```

8. Select all of the columns that are of class `character`.  

```r
select_if(mammals, is.character)
```

```
## # A tibble: 1,440 × 4
##    order        family         Genus       species      
##    <chr>        <chr>          <chr>       <chr>        
##  1 Artiodactyla Antilocapridae Antilocapra americana    
##  2 Artiodactyla Bovidae        Addax       nasomaculatus
##  3 Artiodactyla Bovidae        Aepyceros   melampus     
##  4 Artiodactyla Bovidae        Alcelaphus  buselaphus   
##  5 Artiodactyla Bovidae        Ammodorcas  clarkei      
##  6 Artiodactyla Bovidae        Ammotragus  lervia       
##  7 Artiodactyla Bovidae        Antidorcas  marsupialis  
##  8 Artiodactyla Bovidae        Antilope    cervicapra   
##  9 Artiodactyla Bovidae        Bison       bison        
## 10 Artiodactyla Bovidae        Bison       bonasus      
## # … with 1,430 more rows
```

## Other
Here are two examples of code that are super helpful to have in your bag of tricks.  

Imported data frames often have a mix of lower and uppercase column names. Use `toupper()` or `tolower()` to fix this issue. I always try to use lowercase to keep things consistent.  

```r
mammals <- select_all(mammals, tolower)
mammals
```

```
## # A tibble: 1,440 × 13
##    order   family   genus  species    mass gestation newborn weaning `wean mass`
##    <chr>   <chr>    <chr>  <chr>     <dbl>     <dbl>   <dbl>   <dbl>       <dbl>
##  1 Artiod… Antiloc… Antil… america… 4.54e4      8.13   3246.    3           8900
##  2 Artiod… Bovidae  Addax  nasomac… 1.82e5      9.39   5480     6.5         -999
##  3 Artiod… Bovidae  Aepyc… melampus 4.15e4      6.35   5093     5.63       15900
##  4 Artiod… Bovidae  Alcel… buselap… 1.5 e5      7.9   10167.    6.5         -999
##  5 Artiod… Bovidae  Ammod… clarkei  2.85e4      6.8    -999  -999           -999
##  6 Artiod… Bovidae  Ammot… lervia   5.55e4      5.08   3810     4           -999
##  7 Artiod… Bovidae  Antid… marsupi… 3   e4      5.72   3910     4.04        -999
##  8 Artiod… Bovidae  Antil… cervica… 3.75e4      5.5    3846     2.13        -999
##  9 Artiod… Bovidae  Bison  bison    4.98e5      8.93  20000    10.7       157500
## 10 Artiod… Bovidae  Bison  bonasus  5   e5      9.14  23000.    6.6         -999
## # … with 1,430 more rows, and 4 more variables: afr <dbl>, max. life <dbl>,
## #   litter size <dbl>, litters/year <dbl>
```

When naming columns, blank spaces are often added (don't do this, please). Here is a trick to remove these.  

```r
select_all(mammals, ~str_replace(., " ", "_"))
```

```
## # A tibble: 1,440 × 13
##    order  family genus species   mass gestation newborn weaning wean_mass    afr
##    <chr>  <chr>  <chr> <chr>    <dbl>     <dbl>   <dbl>   <dbl>     <dbl>  <dbl>
##  1 Artio… Antil… Anti… americ… 4.54e4      8.13   3246.    3         8900   13.5
##  2 Artio… Bovid… Addax nasoma… 1.82e5      9.39   5480     6.5       -999   27.3
##  3 Artio… Bovid… Aepy… melamp… 4.15e4      6.35   5093     5.63     15900   16.7
##  4 Artio… Bovid… Alce… busela… 1.5 e5      7.9   10167.    6.5       -999   23.0
##  5 Artio… Bovid… Ammo… clarkei 2.85e4      6.8    -999  -999         -999 -999  
##  6 Artio… Bovid… Ammo… lervia  5.55e4      5.08   3810     4         -999   14.9
##  7 Artio… Bovid… Anti… marsup… 3   e4      5.72   3910     4.04      -999   10.2
##  8 Artio… Bovid… Anti… cervic… 3.75e4      5.5    3846     2.13      -999   20.1
##  9 Artio… Bovid… Bison bison   4.98e5      8.93  20000    10.7     157500   29.4
## 10 Artio… Bovid… Bison bonasus 5   e5      9.14  23000.    6.6       -999   30.0
## # … with 1,430 more rows, and 3 more variables: max._life <dbl>,
## #   litter_size <dbl>, litters/year <dbl>
```
…
