…
```
## The following objects are masked from 'package:stats':
## 
##     chisq.test, fisher.test
```

The `clean_names` function takes care of everything in one line! Now that's a superpower!

```r
superhero_powers <- janitor::clean_names(superhero_powers)
superhero_powers
```

```
## # A tibble: 667 × 168
##    hero_names    agility accelerated_healing lantern_power_ring dimensional_awa…
##    <chr>         <lgl>   <lgl>               <lgl>              <lgl>           
##  1 3-D Man       TRUE    FALSE               FALSE              FALSE           
##  2 A-Bomb        FALSE   TRUE                FALSE              FALSE           
##  3 Abe Sapien    TRUE    TRUE                FALSE              FALSE           
##  4 Abin Sur      FALSE   FALSE               TRUE               FALSE           
##  5 Abomination   FALSE   TRUE                FALSE              FALSE           
##  6 Abraxas       FALSE   FALSE               FALSE              TRUE            
##  7 Absorbing Man FALSE   FALSE               FALSE              FALSE           
##  8 Adam Monroe   FALSE   TRUE                FALSE              FALSE           
##  9 Adam Strange  FALSE   FALSE               FALSE              FALSE           
## 10 Agent Bob     FALSE   FALSE               FALSE              FALSE           
## # … with 657 more rows, and 163 more variables: cold_resistance <lgl>,
## #   durability <lgl>, stealth <lgl>, energy_absorption <lgl>, flight <lgl>,
## #   danger_sense <lgl>, underwater_breathing <lgl>, marksmanship <lgl>,
## #   weapons_master <lgl>, power_augmentation <lgl>, animal_attributes <lgl>,
## #   longevity <lgl>, intelligence <lgl>, super_strength <lgl>,
## #   cryokinesis <lgl>, telepathy <lgl>, energy_armor <lgl>,
## #   energy_blasts <lgl>, duplication <lgl>, size_changing <lgl>, …
```
…
2. Notice that we have some neutral superheros! Who are they?

```r
superhero_info %>%
  filter(alignment=="neutral")
```

```
## # A tibble: 24 × 10
##    name  gender eye_color race  hair_color height publisher skin_color alignment
##    <chr> <chr>  <chr>     <chr> <chr>       <dbl> <chr>     <chr>      <chr>    
##  1 Biza… Male   black     Biza… Black         191 DC Comics white      neutral  
##  2 Blac… Male   <NA>      God … <NA>           NA DC Comics <NA>       neutral  
##  3 Capt… Male   brown     Human Brown          NA DC Comics <NA>       neutral  
##  4 Copy… Female red       Muta… White         183 Marvel C… blue       neutral  
##  5 Dead… Male   brown     Muta… No Hair       188 Marvel C… <NA>       neutral  
##  6 Deat… Male   blue      Human White         193 DC Comics <NA>       neutral  
##  7 Etri… Male   red       Demon No Hair       193 DC Comics yellow     neutral  
##  8 Gala… Male   black     Cosm… Black         876 Marvel C… <NA>       neutral  
##  9 Glad… Male   blue      Stro… Blue          198 Marvel C… purple     neutral  
## 10 Indi… Female <NA>      Alien Purple         NA DC Comics <NA>       neutral  
## # … with 14 more rows, and 1 more variable: weight <dbl>
```

## `superhero_info`
3. Let's say we are only interested in the variables name, alignment, and "race". How would you isolate these variables from `superhero_info`?

```r
superhero_info %>%
  select(name, alignment, race)
```

```
## # A tibble: 734 × 3
##    name          alignment race             
##    <chr>         <chr>     <chr>            
##  1 A-Bomb        good      Human            
##  2 Abe Sapien    good      Icthyo Sapien    
##  3 Abin Sur      good      Ungaran          
##  4 Abomination   bad       Human / Radiation
##  5 Abraxas       bad       Cosmic Entity    
##  6 Absorbing Man bad       Human            
##  7 Adam Monroe   good      <NA>             
##  8 Adam Strange  good      Human            
##  9 Agent 13      good      <NA>             
## 10 Agent Bob     good      Human            
## # … with 724 more rows
```

## Not Human
4. List all of the superheros that are not human.

```r
superhero_info %>%
  filter(!race=="Human")
```

```
## # A tibble: 222 × 10
##    name  gender eye_color race  hair_color height publisher skin_color alignment
##    <chr> <chr>  <chr>     <chr> <chr>       <dbl> <chr>     <chr>      <chr>    
##  1 Abe … Male   blue      Icth… No Hair       191 Dark Hor… blue       good     
##  2 Abin… Male   blue      Unga… No Hair       185 DC Comics red        good     
##  3 Abom… Male   green     Huma… No Hair       203 Marvel C… <NA>       bad      
##  4 Abra… Male   blue      Cosm… Black          NA Marvel C… <NA>       bad      
##  5 Ajax  Male   brown     Cybo… Black         193 Marvel C… <NA>       bad      
##  6 Alien Male   <NA>      Xeno… No Hair       244 Dark Hor… black      bad      
##  7 Amazo Male   red       Andr… <NA>          257 DC Comics <NA>       bad      
##  8 Angel Male   <NA>      Vamp… <NA>           NA Dark Hor… <NA>       good     
##  9 Ange… Female yellow    Muta… Black         165 Marvel C… <NA>       good     
## 10 Anti… Male   yellow    God … No Hair        61 DC Comics <NA>       bad      
## # … with 212 more rows, and 1 more variable: weight <dbl>
```

## Good and Evil
5. Let's make two different data frames, one focused on the "good guys" and another focused on the "bad guys".

```r
good_guys <- filter(superhero_info, alignment == "good")
good_guys
```

```
## # A tibble: 496 × 10
##    name  gender eye_color race  hair_color height publisher skin_color alignment
##    <chr> <chr>  <chr>     <chr> <chr>       <dbl> <chr>     <chr>      <chr>    
##  1 A-Bo… Male   yellow    Human No Hair       203 Marvel C… <NA>       good     
##  2 Abe … Male   blue      Icth… No Hair       191 Dark Hor… blue       good     
##  3 Abin… Male   blue      Unga… No Hair       185 DC Comics red        good     
##  4 Adam… Male   blue      <NA>  Blond          NA NBC - He… <NA>       good     
##  5 Adam… Male   blue      Human Blond         185 DC Comics <NA>       good     
##  6 Agen… Female blue      <NA>  Blond         173 Marvel C… <NA>       good     
##  7 Agen… Male   brown     Human Brown         178 Marvel C… <NA>       good     
##  8 Agen… Male   <NA>      <NA>  <NA>          191 Marvel C… <NA>       good     
##  9 Alan… Male   blue      <NA>  Blond         180 DC Comics <NA>       good     
## 10 Alex… Male   <NA>      <NA>  <NA>           NA NBC - He… <NA>       good     
## # … with 486 more rows, and 1 more variable: weight <dbl>
```


```r
bad_guys <- filter(superhero_info, alignment == "bad")
bad_guys
```

```
## # A tibble: 207 × 10
##    name  gender eye_color race  hair_color height publisher skin_color alignment
##    <chr> <chr>  <chr>     <chr> <chr>       <dbl> <chr>     <chr>      <chr>    
##  1 Abom… Male   green     Huma… No Hair       203 Marvel C… <NA>       bad      
##  2 Abra… Male   blue      Cosm… Black          NA Marvel C… <NA>       bad      
##  3 Abso… Male   blue      Human No Hair       193 Marvel C… <NA>       bad      
##  4 Air-… Male   blue      <NA>  White         188 Marvel C… <NA>       bad      
##  5 Ajax  Male   brown     Cybo… Black         193 Marvel C… <NA>       bad      
##  6 Alex… Male   <NA>      Human <NA>           NA Wildstorm <NA>       bad      
##  7 Alien Male   <NA>      Xeno… No Hair       244 Dark Hor… black      bad      
##  8 Amazo Male   red       Andr… <NA>          257 DC Comics <NA>       bad      
##  9 Ammo  Male   brown     Human Black         188 Marvel C… <NA>       bad      
## 10 Ange… Female <NA>      <NA>  <NA>           NA Image Co… <NA>       bad      
## # … with 197 more rows, and 1 more variable: weight <dbl>
```
…
10. Let's explore who the really "big" superheros are. In the `superhero_info` data, which have a height over 200 or weight greater than or equal to 450?

```r
superhero_info %>%
  filter(height>200 | weight >=450)
```

```
## # A tibble: 60 × 10
##    name  gender eye_color race  hair_color height publisher skin_color alignment
##    <chr> <chr>  <chr>     <chr> <chr>       <dbl> <chr>     <chr>      <chr>    
##  1 A-Bo… Male   yellow    Human No Hair       203 Marvel C… <NA>       good     
##  2 Abom… Male   green     Huma… No Hair       203 Marvel C… <NA>       bad      
##  3 Alien Male   <NA>      Xeno… No Hair       244 Dark Hor… black      bad      
##  4 Amazo Male   red       Andr… <NA>          257 DC Comics <NA>       bad      
##  5 Ant-… Male   blue      Human Blond         211 Marvel C… <NA>       good     
##  6 Anti… Male   blue      Symb… Blond         229 Marvel C… <NA>       <NA>     
##  7 Apoc… Male   red       Muta… Black         213 Marvel C… grey       bad      
##  8 Bane  Male   <NA>      Human <NA>          203 DC Comics <NA>       bad      
##  9 Beta… Male   <NA>      <NA>  No Hair       201 Marvel C… <NA>       good     
## 10 Bloo… Female blue      Human Brown         218 Marvel C… <NA>       bad      
## # … with 50 more rows, and 1 more variable: weight <dbl>
```
…
## Height to Weight Ratio
13. It's easy to be strong when you are heavy and tall, but who is heavy and short? Which superheros have the highest height to weight ratio?
*Groot has the highest height to weight ratio at 175.25. Giganta have the lowest height to weight ratio, indicating tahtthat she is short compared to her weight.*

```r
superhero_info %>%
  mutate(height_to_weight = height/weight) %>%
  arrange(height_to_weight)
```

```
## # A tibble: 734 × 11
##    name  gender eye_color race  hair_color height publisher skin_color alignment
##    <chr> <chr>  <chr>     <chr> <chr>       <dbl> <chr>     <chr>      <chr>    
##  1 Giga… Female green     <NA>  Red          62.5 DC Comics <NA>       bad      
##  2 Utga… Male   blue      Fros… White        15.2 Marvel C… <NA>       bad      
##  3 Dark… Male   red       New … No Hair     267   DC Comics grey       bad      
##  4 Jugg… Male   blue      Human Red         287   Marvel C… <NA>       neutral  
##  5 Red … Male   yellow    Huma… Black       213   Marvel C… red        neutral  
##  6 Sasq… Male   red       <NA>  Orange      305   Marvel C… <NA>       good     
##  7 Hulk  Male   green     Huma… Green       244   Marvel C… green      good     
##  8 Bloo… Female blue      Human Brown       218   Marvel C… <NA>       bad      
##  9 Than… Male   red       Eter… No Hair     201   Marvel C… purple     bad      
## 10 A-Bo… Male   yellow    Human No Hair     203   Marvel C… <NA>       good     
## # … with 724 more rows, and 2 more variables: weight <dbl>,
## #   height_to_weight <dbl>
```
…
14. How many superheros have a combination of accelerated healing, durability, and super strength?

```r
superhero_powers %>%
  filter(accelerated_healing==TRUE, durability==TRUE, super_strength==TRUE) %>%
  select(accelerated_healing, durability, super_strength, hero_names)
```

```
## # A tibble: 97 × 4
##    accelerated_healing durability super_strength hero_names  
##    <lgl>               <lgl>      <lgl>          <chr>       
##  1 TRUE                TRUE       TRUE           A-Bomb      
##  2 TRUE                TRUE       TRUE           Abe Sapien  
##  3 TRUE                TRUE       TRUE           Angel       
##  4 TRUE                TRUE       TRUE           Anti-Monitor
##  5 TRUE                TRUE       TRUE           Anti-Venom  
##  6 TRUE                TRUE       TRUE           Aquaman     
##  7 TRUE                TRUE       TRUE           Arachne     
##  8 TRUE                TRUE       TRUE           Archangel   
##  9 TRUE                TRUE       TRUE           Ardina      
## 10 TRUE                TRUE       TRUE           Ares        
## # … with 87 more rows
```
…
