…
2. Use one of the tools explained above to summarize NA's in the data.

```r
amniota %>%
  purrr::map_df(~ sum(is.na(.))) %>% 
  pivot_longer(everything(),
    names_to= "variables",
    values_to = "num_nas") %>% 
  arrange(desc(num_nas))
```

```
## # A tibble: 36 x 2
##    variables                 num_nas
##    <chr>                       <int>
##  1 class                           0
##  2 order                           0
##  3 family                          0
##  4 genus                           0
##  5 species                         0
##  6 subspecies                      0
##  7 common_name                     0
##  8 female_maturity_d               0
##  9 litter_or_clutch_size_n         0
## 10 litters_or_clutches_per_y       0
## # ... with 26 more rows
```
…
Wow, that is a lot of missing data! Let's try `purr`. For a large data set like `amniota` this is very convenient.

```r
amniota_tidy %>% 
  purrr::map_df(~ sum(is.na(.))) %>% 
  pivot_longer(everything(),
    names_to= "variables",
    values_to = "num_nas") %>% 
  arrange(desc(num_nas))
```

```
## # A tibble: 36 x 2
##    variables                      num_nas
##    <chr>                            <int>
##  1 subspecies                       21322
##  2 female_body_mass_at_maturity_g   21318
##  3 female_svl_at_maturity_cm        21120
##  4 fledging_mass_g                  21111
##  5 male_svl_cm                      21040
##  6 no_sex_maturity_d                20860
##  7 egg_width_mm                     20727
##  8 egg_length_mm                    20702
##  9 weaning_weight_g                 20258
## 10 female_svl_cm                    20242
## # ... with 26 more rows
```
…
```r
life_history
```

```
## # A tibble: 1,440 x 13
##    order   family   Genus  species    mass gestation newborn weaning `wean mass`
##    <chr>   <chr>    <chr>  <chr>     <dbl>     <dbl>   <dbl>   <dbl>       <dbl>
##  1 Artiod~ Antiloc~ Antil~ america~ 4.54e4      8.13   3246.    3           8900
##  2 Artiod~ Bovidae  Addax  nasomac~ 1.82e5      9.39   5480     6.5         -999
##  3 Artiod~ Bovidae  Aepyc~ melampus 4.15e4      6.35   5093     5.63       15900
##  4 Artiod~ Bovidae  Alcel~ buselap~ 1.5 e5      7.9   10167.    6.5         -999
##  5 Artiod~ Bovidae  Ammod~ clarkei  2.85e4      6.8    -999  -999           -999
##  6 Artiod~ Bovidae  Ammot~ lervia   5.55e4      5.08   3810     4           -999
##  7 Artiod~ Bovidae  Antid~ marsupi~ 3   e4      5.72   3910     4.04        -999
##  8 Artiod~ Bovidae  Antil~ cervica~ 3.75e4      5.5    3846     2.13        -999
##  9 Artiod~ Bovidae  Bison  bison    4.98e5      8.93  20000    10.7       157500
## 10 Artiod~ Bovidae  Bison  bonasus  5   e5      9.14  23000.    6.6         -999
## # ... with 1,430 more rows, and 4 more variables: AFR <dbl>, max. life <dbl>,
## #   litter size <dbl>, litters/year <dbl>
```

3. Replace the entries that represent NA's in the data using `na_if()`. Double check your work.

```r
life_history_clean <- life_history %>%
  na_if("-999")
```


```r
life_history_clean
```

```
## # A tibble: 1,440 x 13
##    order family Genus species   mass gestation newborn weaning `wean mass`   AFR
##    <chr> <chr>  <chr> <chr>    <dbl>     <dbl>   <dbl>   <dbl>       <dbl> <dbl>
##  1 Arti~ Antil~ Anti~ americ~ 4.54e4      8.13   3246.    3           8900  13.5
##  2 Arti~ Bovid~ Addax nasoma~ 1.82e5      9.39   5480     6.5           NA  27.3
##  3 Arti~ Bovid~ Aepy~ melamp~ 4.15e4      6.35   5093     5.63       15900  16.7
##  4 Arti~ Bovid~ Alce~ busela~ 1.5 e5      7.9   10167.    6.5           NA  23.0
##  5 Arti~ Bovid~ Ammo~ clarkei 2.85e4      6.8      NA    NA             NA  NA  
##  6 Arti~ Bovid~ Ammo~ lervia  5.55e4      5.08   3810     4             NA  14.9
##  7 Arti~ Bovid~ Anti~ marsup~ 3   e4      5.72   3910     4.04          NA  10.2
##  8 Arti~ Bovid~ Anti~ cervic~ 3.75e4      5.5    3846     2.13          NA  20.1
##  9 Arti~ Bovid~ Bison bison   4.98e5      8.93  20000    10.7       157500  29.4
## 10 Arti~ Bovid~ Bison bonasus 5   e5      9.14  23000.    6.6           NA  30.0
## # ... with 1,430 more rows, and 3 more variables: max. life <dbl>,
## #   litter size <dbl>, litters/year <dbl>
```
…
